BSMM-8740 - Fall 2025 – Causality Part 2
…
all_results_dat

# Bootstrap sampling with apparent sample 
# A tibble: 1,001 × 7
   splits             id            ipw_fits reg_fits
   <list>             <chr>         <list>   <list>  
 1 <split [1752/651]> Bootstrap0001 <tibble> <tibble>
 2 <split [1752/657]> Bootstrap0002 <tibble> <tibble>
 3 <split [1752/634]> Bootstrap0003 <tibble> <tibble>
 4 <split [1752/644]> Bootstrap0004 <tibble> <tibble>
 5 <split [1752/631]> Bootstrap0005 <tibble> <tibble>
 6 <split [1752/652]> Bootstrap0006 <tibble> <tibble>
 7 <split [1752/630]> Bootstrap0007 <tibble> <tibble>
 8 <split [1752/666]> Bootstrap0008 <tibble> <tibble>
 9 <split [1752/659]> Bootstrap0009 <tibble> <tibble>
10 <split [1752/626]> Bootstrap0010 <tibble> <tibble>
# ℹ 991 more rows
# ℹ 3 more variables: reg_estimate <dbl>,
#   ipw_estimate <dbl>, dre_estimate <dbl>
…
