BSMM-8740 - Fall 2024 – Time series methods
…
time downscaling

Code

> timetk::bike_sharing_daily %>% 
+   timetk::summarise_by_time(
+     .date_var = dteday
+     , .by = "week"
+     , .week_start = 7
+     , causal = sum(casual)
+     , registered = mean(registered)
+     , max_cnt = max(cnt)
+   )

# A tibble: 106 × 4
   dteday     causal registered max_cnt
   <date>      <dbl>      <dbl>   <dbl>
 1 2010-12-26    331       654      985
 2 2011-01-02    745      1235.    1606
 3 2011-01-09    477      1167.    1421
 4 2011-01-16    706      1183.    1927
 5 2011-01-23    632       994.    1985
 6 2011-01-30    550      1314.    1708
 7 2011-02-06   1075      1450.    1746
 8 2011-02-13   2333      1734.    2927
 9 2011-02-20   1691      1405.    1969
10 2011-02-27   2120      1631.    2402
# ℹ 96 more rows
…
time upscalling

Code

> timetk::bike_sharing_daily %>% 
+   dplyr::select(dteday, casual) %>% 
+   timetk::pad_by_time(.date_var = dteday, .by = "hour") %>% 
+   timetk::mutate_by_time(
+     .date_var = dteday
+     , .by = "day"
+     , casual = sum(casual,na.rm=T)/24
+   )

# A tibble: 17,521 × 2
   dteday              casual
   <dttm>               <dbl>
 1 2011-01-01 00:00:00   13.8
 2 2011-01-01 01:00:00   13.8
 3 2011-01-01 02:00:00   13.8
 4 2011-01-01 03:00:00   13.8
 5 2011-01-01 04:00:00   13.8
 6 2011-01-01 05:00:00   13.8
 7 2011-01-01 06:00:00   13.8
 8 2011-01-01 07:00:00   13.8
 9 2011-01-01 08:00:00   13.8
10 2011-01-01 09:00:00   13.8
# ℹ 17,511 more rows
…
Code

> timetk::bike_sharing_daily %>%
+   dplyr::select(dteday, casual) %>% 
+   timetk::mutate_by_time(
+     .date_var = dteday
+     , .by = "7 days"
+     , casual_mean = mean(casual)
+     , casual_median = median(casual)
+     , casual_max = max(casual)
+     , casual_min = min(casual)
+   )

# A tibble: 731 × 6
   dteday     casual casual_mean casual_median casual_max casual_min
   <date>      <dbl>       <dbl>         <dbl>      <dbl>      <dbl>
 1 2011-01-01    331       144             120        331         82
 2 2011-01-02    131       144             120        331         82
 3 2011-01-03    120       144             120        331         82
 4 2011-01-04    108       144             120        331         82
 5 2011-01-05     82       144             120        331         82
 6 2011-01-06     88       144             120        331         82
 7 2011-01-07    148       144             120        331         82
 8 2011-01-08     68        46.1            43         68         25
 9 2011-01-09     54        46.1            43         68         25
10 2011-01-10     41        46.1            43         68         25
# ℹ 721 more rows
…
summarize by period

Code

> timetk::bike_sharing_daily %>%
+   timetk::summarize_by_time(
+     .date_var = dteday
+     , .by = "7 days"
+     , casual_mean = mean(casual)
+     , registered_mean = mean(registered)
+     , windspeed_max = max(windspeed)
+   )

# A tibble: 119 × 4
   dteday     casual_mean registered_mean windspeed_max
   <date>           <dbl>           <dbl>         <dbl>
 1 2011-01-01       144             1201.         0.249
 2 2011-01-08        46.1           1147.         0.362
 3 2011-01-15       119.            1203.         0.353
 4 2011-01-22        86              981.         0.294
 5 2011-01-29       102.            1130          0.187
 6 2011-02-01       120.            1377.         0.278
 7 2011-02-08       172.            1455.         0.418
 8 2011-02-15       366             1618.         0.507
 9 2011-02-22       233.            1546.         0.347
10 2011-03-01       243.            1495          0.343
# ℹ 109 more rows
…
create a timeseries

Code

> tibble::tibble(
+   date = 
+     timetk::tk_make_timeseries(
+       start_date = "2024"
+       , length_out = 100
+       , by = "month"
+     )
+   , values=1:100
+ )

# A tibble: 100 × 2
   date       values
   <date>      <int>
 1 2024-01-01      1
 2 2024-02-01      2
 3 2024-03-01      3
 4 2024-04-01      4
 5 2024-05-01      5
 6 2024-06-01      6
 7 2024-07-01      7
 8 2024-08-01      8
 9 2024-09-01      9
10 2024-10-01     10
# ℹ 90 more rows
…
