BSMM-8740 - Fall 2024 – Creating and Preprocessing a Design Matrix with Recipes
…
Principal Component Analysis

> pca <- basic %>% 
+   recipes::step_pca(
+     recipes::all_predictors()
+     , threshold = .9
+   )
> 
> summary(pca)

# A tibble: 59 × 4
   variable                type      role      source  
   <chr>                   <list>    <chr>     <chr>   
 1 AngleCh1                <chr [2]> predictor original
 2 AreaCh1                 <chr [2]> predictor original
 3 AvgIntenCh1             <chr [2]> predictor original
 4 AvgIntenCh2             <chr [2]> predictor original
 5 AvgIntenCh3             <chr [2]> predictor original
 6 AvgIntenCh4             <chr [2]> predictor original
 7 ConvexHullAreaRatioCh1  <chr [2]> predictor original
 8 ConvexHullPerimRatioCh1 <chr [2]> predictor original
 9 DiffIntenDensityCh1     <chr [2]> predictor original
10 DiffIntenDensityCh3     <chr [2]> predictor original
# ℹ 49 more rows
…
Kernel PCA - distance to each centroid

> dist_to_classes <- basic %>% 
+   recipes::step_classdist(recipes::all_predictors(), class = "Class") %>%
+   # Take log of the new distance features
+   recipes::step_log(starts_with("classdist"))
> 
> dist_to_classes <- recipes::prep(dist_to_classes, verbose = FALSE)
> 
> # All variables are retained plus an additional one for each class
> dist_to_classes <- recipes::bake(dist_to_classes, new_data = seg_test, matches("[Cc]lass"))
> dist_to_classes

# A tibble: 1,010 × 3
   Class classdist_PS classdist_WS
   <fct>        <dbl>        <dbl>
 1 PS            1.53         1.74
 2 PS            1.35         1.46
 3 WS            1.71         1.53
 4 WS            1.75         1.61
 5 PS            1.47         1.65
 6 WS            1.48         1.47
 7 WS            1.49         1.55
 8 WS            1.55         1.40
 9 PS            1.54         1.71
10 PS            1.55         1.57
# ℹ 1,000 more rows
…
